"TR:Cell:CellLine","DA:Biomass","DV:Biomass","DA:Glutamine","DV:Glutamine","DA:Proline","DV:Proline"
1,0,0,0,10,0,10
1,1,0.01,1,9.99,1,10
1,2,0.04,2,9.95,2,9.97
1,3,0.13,3,9.87,3,9.88
1,4,0.22,4,9.67,4,9.88
1,5,0.38,5,9.35,5,9.88
1,6,0.66,6,8.81,6,9.88
1,7,1.12,7,7.89,7,9.88
1,8,1.9,8,6.33,8,9.88
1,9,3.21,9,3.7,9,9.88
1,10,5.44,10,0,10,9.88
1,11,5.44,11,0,11,9.88
1,12,5.44,12,0,12,9.88
1,13,5.44,13,0,13,9.88
1,14,5.44,14,0,14,9.88
1,15,5.44,15,0,15,9.88
1,16,5.44,16,0,16,9.88
1,17,5.44,17,0,17,9.88
1,18,5.44,18,0,18,9.88
1,19,5.44,19,0,19,9.88
