digraph "" {
Assimil [color=black, fillcolor=white, fontname=Helvetica, fontsize=18, shape=ellipse, style="filled, bold"];
Biomass [color=olivedrab3, fillcolor=olivedrab3, fontname=Helvetica, fontsize=18, shape=ellipse, style="filled, bold"];
Tp [color=lightblue, fillcolor=lightblue, fontname=Helvetica, fontsize=18, shape=ellipse, style="filled, bold"];
Glutamine [color=olivedrab3, fillcolor=olivedrab3, fontname=Helvetica, fontsize=18, shape=ellipse, style="filled, bold"];
Tg [color=lightblue, fillcolor=lightblue, fontname=Helvetica, fontsize=18, shape=ellipse, style="filled, bold"];
Proline [color=olivedrab3, fillcolor=olivedrab3, fontname=Helvetica, fontsize=18, shape=ellipse, style="filled, bold"];
Assimil -> Biomass  [arrowhead=normal, color=forestgreen, dir=forward, key=0, penwidth="5.0", sign=1, weight="1.0"];
Tp -> Assimil  [arrowhead=normal, color=forestgreen, dir=forward, key=0, penwidth="5.0", sign=1, weight="1.0"];
Glutamine -> Tg  [arrowhead=normal, color=forestgreen, dir=forward, key=0, penwidth="5.0", sign=1, weight="1.0"];
Tg -> Assimil  [arrowhead=normal, color=forestgreen, dir=forward, key=0, penwidth="5.0", sign=1, weight="1.0"];
Proline -> Tp  [arrowhead=normal, color=forestgreen, dir=forward, key=0, penwidth="5.0", sign=1, weight="1.0"];
}
