digraph "" {
Carbon2 [color=orangered, fillcolor=SkyBlue2, fontname=Helvetica, fontsize=18, shape=ellipse, style="filled, bold, diagonals"];
Carbon1 [color=orangered, fillcolor=SkyBlue2, fontname=Helvetica, fontsize=18, shape=ellipse, style="filled, bold, diagonals"];
Tc2 [color=lightblue, fillcolor=lightblue, fontname=Helvetica, fontsize=18, shape=ellipse, style="filled, bold"];
Biomass [color=lightblue, fillcolor=lightblue, fontname=Helvetica, fontsize=18, shape=ellipse, style="filled, bold"];
Tc1 [color=lightblue, fillcolor=lightblue, fontname=Helvetica, fontsize=18, shape=ellipse, style="filled, bold"];
Growth [color=lightblue, fillcolor=lightblue, fontname=Helvetica, fontsize=18, shape=ellipse, style="filled, bold"];
RPcl [color=lightblue, fillcolor=lightblue, fontname=Helvetica, fontsize=18, shape=ellipse, style="filled, bold"];
Carbon2 -> Tc2  [arrowhead=normal, color=forestgreen, dir=forward, key=0, penwidth="2.5", sign=1];
Carbon1 -> RPcl  [arrowhead=normal, color=forestgreen, dir=forward, key=0, penwidth="2.5", sign=1];
Carbon1 -> Tc1  [arrowhead=normal, color=forestgreen, dir=forward, key=0, penwidth="2.5", sign=1];
Tc2 -> Growth  [arrowhead=normal, color=forestgreen, dir=forward, key=0, penwidth="2.5", sign=1];
Tc2 -> RPcl  [arrowhead=normal, color=forestgreen, dir=forward, key=0, penwidth="2.5", sign=1];
Tc2 -> RPcl  [arrowhead=tee, color=red, dir=forward, key=1, penwidth="2.5", sign="-1"];
Tc1 -> RPcl  [arrowhead=normal, color=forestgreen, dir=forward, key=0, penwidth="2.5", sign=1];
Tc1 -> Growth  [arrowhead=normal, color=forestgreen, dir=forward, key=0, penwidth="2.5", sign=1];
Growth -> Biomass  [arrowhead=normal, color=forestgreen, dir=forward, key=0, penwidth="2.5", sign=1];
RPcl -> Tc2  [arrowhead=tee, color=red, dir=forward, key=0, penwidth="2.5", sign="-1"];
RPcl -> Tc2  [arrowhead=normal, color=forestgreen, dir=forward, key=1, penwidth="2.5", sign=1];
RPcl -> Tc1  [arrowhead=normal, color=forestgreen, dir=forward, key=0, penwidth="2.5", sign=1];
RPcl -> Tc1  [arrowhead=tee, color=red, dir=forward, key=1, penwidth="2.5", sign="-1"];
}
