digraph "" {
NADH [color=lightblue, fillcolor=lightblue, fontname=Helvetica, fontsize=18, shape=ellipse, style="filled, bold"];
Th [color=lightblue, fillcolor=lightblue, fontname=Helvetica, fontsize=18, shape=ellipse, style="filled, bold"];
R8a [color=lightblue, fillcolor=lightblue, fontname=Helvetica, fontsize=18, shape=ellipse, style="filled, bold"];
R8b [color=lightblue, fillcolor=lightblue, fontname=Helvetica, fontsize=18, shape=ellipse, style="filled, bold"];
Rres [color=lightblue, fillcolor=lightblue, fontname=Helvetica, fontsize=18, shape=ellipse, style="filled, bold"];
RPb [color=orangered, fillcolor=orangered, fontname=Helvetica, fontsize=18, shape=ellipse, style="filled, bold"];
ATP [color=lightblue, fillcolor=lightblue, fontname=Helvetica, fontsize=18, shape=ellipse, style="filled, bold"];
RPh [color=orangered, fillcolor=orangered, fontname=Helvetica, fontsize=18, shape=ellipse, style="filled, bold"];
Hext [color=olivedrab3, fillcolor=olivedrab3, fontname=Helvetica, fontsize=18, shape=ellipse, style="filled, bold"];
Eext [color=olivedrab3, fillcolor=olivedrab3, fontname=Helvetica, fontsize=18, shape=ellipse, style="filled, bold"];
RPc1 [color=orangered, fillcolor=orangered, fontname=Helvetica, fontsize=18, shape=ellipse, style="filled, bold"];
Tc2 [color=lightblue, fillcolor=lightblue, fontname=Helvetica, fontsize=18, shape=ellipse, style="filled, bold"];
R2b [color=lightblue, fillcolor=lightblue, fontname=Helvetica, fontsize=18, shape=ellipse, style="filled, bold"];
R2a [color=lightblue, fillcolor=lightblue, fontname=Helvetica, fontsize=18, shape=ellipse, style="filled, bold"];
Tc1 [color=lightblue, fillcolor=lightblue, fontname=Helvetica, fontsize=18, shape=ellipse, style="filled, bold"];
R4 [color=lightblue, fillcolor=lightblue, fontname=Helvetica, fontsize=18, shape=ellipse, style="filled, bold"];
RPO2 [color=orangered, fillcolor=orangered, fontname=Helvetica, fontsize=18, shape=ellipse, style="filled, bold"];
R6 [color=lightblue, fillcolor=lightblue, fontname=Helvetica, fontsize=18, shape=ellipse, style="filled, bold"];
R7 [color=lightblue, fillcolor=lightblue, fontname=Helvetica, fontsize=18, shape=ellipse, style="filled, bold"];
R1 [color=lightblue, fillcolor=lightblue, fontname=Helvetica, fontsize=18, shape=ellipse, style="filled, bold"];
Oxygen [color=olivedrab3, fillcolor=olivedrab3, fontname=Helvetica, fontsize=18, shape=ellipse, style="filled, bold"];
R3 [color=lightblue, fillcolor=lightblue, fontname=Helvetica, fontsize=18, shape=ellipse, style="filled, bold"];
Carbon2 [color=olivedrab3, fillcolor=olivedrab3, fontname=Helvetica, fontsize=18, shape=ellipse, style="filled, bold"];
Carbon1 [color=olivedrab3, fillcolor=olivedrab3, fontname=Helvetica, fontsize=18, shape=ellipse, style="filled, bold"];
Fext [color=olivedrab3, fillcolor=olivedrab3, fontname=Helvetica, fontsize=18, shape=ellipse, style="filled, bold"];
R5b [color=lightblue, fillcolor=lightblue, fontname=Helvetica, fontsize=18, shape=ellipse, style="filled, bold"];
R5a [color=lightblue, fillcolor=lightblue, fontname=Helvetica, fontsize=18, shape=ellipse, style="filled, bold"];
Biomass [color=olivedrab3, fillcolor=olivedrab3, fontname=Helvetica, fontsize=18, shape=ellipse, style="filled, bold"];
Dext [color=olivedrab3, fillcolor=olivedrab3, fontname=Helvetica, fontsize=18, shape=ellipse, style="filled, bold"];
NADH -> R8a  [arrowhead=normal, color=forestgreen, dir=forward, key=0, penwidth="2.5", sign=1];
NADH -> R7  [arrowhead=normal, color=forestgreen, dir=forward, key=0, penwidth="2.5", sign=1];
NADH -> Rres  [arrowhead=normal, color=forestgreen, dir=forward, key=0, penwidth="2.5", sign=1];
NADH -> R2b  [arrowhead=normal, color=forestgreen, dir=forward, key=0, penwidth="2.5", sign=1];
Th -> R8b  [arrowhead=normal, color=forestgreen, dir=forward, key=0, penwidth="2.5", sign=1];
Th -> Biomass  [arrowhead=normal, color=forestgreen, dir=forward, key=0, penwidth="2.5", sign=1];
R8a -> RPh  [arrowhead=normal, color=forestgreen, dir=forward, key=0, penwidth="2.5", sign=1];
R8a -> RPh  [arrowhead=tee, color=red, dir=forward, key=1, penwidth="2.5", sign="-1"];
R8a -> Th  [arrowhead=normal, color=forestgreen, dir=forward, key=0, penwidth="2.5", sign=1];
R8b -> R5b  [arrowhead=normal, color=forestgreen, dir=forward, key=0, penwidth="2.5", sign=1];
R8b -> NADH  [arrowhead=normal, color=forestgreen, dir=forward, key=0, penwidth="2.5", sign=1];
R8b -> ATP  [arrowhead=normal, color=forestgreen, dir=forward, key=0, penwidth="2.5", sign=1];
R8b -> R5a  [arrowhead=normal, color=forestgreen, dir=forward, key=0, penwidth="2.5", sign=1];
Rres -> RPO2  [arrowhead=normal, color=forestgreen, dir=forward, key=0, penwidth="2.5", sign=1];
Rres -> RPO2  [arrowhead=tee, color=red, dir=forward, key=1, penwidth="2.5", sign="-1"];
Rres -> ATP  [arrowhead=normal, color=forestgreen, dir=forward, key=0, penwidth="2.5", sign=1];
RPb -> R7  [arrowhead=tee, color=red, dir=forward, key=0, penwidth="2.5", sign="-1"];
RPb -> R7  [arrowhead=normal, color=forestgreen, dir=forward, key=1, penwidth="2.5", sign=1];
RPb -> R2b  [arrowhead=normal, color=forestgreen, dir=forward, key=0, penwidth="2.5", sign=1];
RPb -> R2b  [arrowhead=tee, color=red, dir=forward, key=1, penwidth="2.5", sign="-1"];
RPb -> R2a  [arrowhead=tee, color=red, dir=forward, key=0, penwidth="2.5", sign="-1"];
RPb -> R2a  [arrowhead=normal, color=forestgreen, dir=forward, key=1, penwidth="2.5", sign=1];
ATP -> R8a  [arrowhead=normal, color=forestgreen, dir=forward, key=0, penwidth="2.5", sign=1];
ATP -> R2b  [arrowhead=normal, color=forestgreen, dir=forward, key=0, penwidth="2.5", sign=1];
ATP -> Biomass  [arrowhead=normal, color=forestgreen, dir=forward, key=0, penwidth="2.5", sign=1];
RPh -> R8a  [arrowhead=tee, color=red, dir=forward, key=0, penwidth="2.5", sign="-1"];
RPh -> R8a  [arrowhead=normal, color=forestgreen, dir=forward, key=1, penwidth="2.5", sign=1];
Hext -> RPh  [arrowhead=normal, color=forestgreen, dir=forward, key=0, penwidth="2.5", sign=1];
Hext -> RPh  [arrowhead=tee, color=red, dir=forward, key=1, penwidth="2.5", sign="-1"];
Hext -> Th  [arrowhead=normal, color=forestgreen, dir=forward, key=0, penwidth="2.5", sign=1];
Oxygen -> RPO2  [arrowhead=tee, color=red, dir=forward, key=0, penwidth="2.5", sign="-1"];
Oxygen -> Rres  [arrowhead=normal, color=forestgreen, dir=forward, key=0, penwidth="2.5", sign=1];
Tc2 -> R1  [arrowhead=normal, color=forestgreen, dir=forward, key=0, penwidth="2.5", sign=1];
Tc2 -> RPc1  [arrowhead=normal, color=forestgreen, dir=forward, key=0, penwidth="2.5", sign=1];
Tc2 -> RPc1  [arrowhead=tee, color=red, dir=forward, key=1, penwidth="2.5", sign="-1"];
R2b -> RPb  [arrowhead=normal, color=forestgreen, dir=forward, key=0, penwidth="2.5", sign=1];
R2b -> RPb  [arrowhead=tee, color=red, dir=forward, key=1, penwidth="2.5", sign="-1"];
R2b -> R3  [arrowhead=normal, color=forestgreen, dir=forward, key=0, penwidth="2.5", sign=1];
R2a -> R4  [arrowhead=normal, color=forestgreen, dir=forward, key=0, penwidth="2.5", sign=1];
R2a -> R6  [arrowhead=normal, color=forestgreen, dir=forward, key=0, penwidth="2.5", sign=1];
R2a -> NADH  [arrowhead=normal, color=forestgreen, dir=forward, key=0, penwidth="2.5", sign=1];
R2a -> Biomass  [arrowhead=normal, color=forestgreen, dir=forward, key=0, penwidth="2.5", sign=1];
R2a -> R7  [arrowhead=normal, color=forestgreen, dir=forward, key=0, penwidth="2.5", sign=1];
R2a -> ATP  [arrowhead=normal, color=forestgreen, dir=forward, key=0, penwidth="2.5", sign=1];
R2a -> RPb  [arrowhead=normal, color=forestgreen, dir=forward, key=0, penwidth="2.5", sign=1];
R2a -> RPb  [arrowhead=tee, color=red, dir=forward, key=1, penwidth="2.5", sign="-1"];
Tc1 -> R1  [arrowhead=normal, color=forestgreen, dir=forward, key=0, penwidth="2.5", sign=1];
R4 -> R8a  [arrowhead=normal, color=forestgreen, dir=forward, key=0, penwidth="2.5", sign=1];
RPO2 -> R5b  [arrowhead=normal, color=forestgreen, dir=forward, key=0, penwidth="2.5", sign=1];
RPO2 -> R5b  [arrowhead=tee, color=red, dir=forward, key=1, penwidth="2.5", sign="-1"];
RPO2 -> R5a  [arrowhead=tee, color=red, dir=forward, key=0, penwidth="2.5", sign="-1"];
RPO2 -> R5a  [arrowhead=normal, color=forestgreen, dir=forward, key=1, penwidth="2.5", sign=1];
RPO2 -> Rres  [arrowhead=tee, color=red, dir=forward, key=0, penwidth="2.5", sign="-1"];
RPO2 -> Rres  [arrowhead=normal, color=forestgreen, dir=forward, key=1, penwidth="2.5", sign=1];
R6 -> Dext  [arrowhead=normal, color=forestgreen, dir=forward, key=0, penwidth="2.5", sign=1];
R6 -> ATP  [arrowhead=normal, color=forestgreen, dir=forward, key=0, penwidth="2.5", sign=1];
R7 -> Eext  [arrowhead=normal, color=forestgreen, dir=forward, key=0, penwidth="2.5", sign=1];
R7 -> RPb  [arrowhead=normal, color=forestgreen, dir=forward, key=0, penwidth="2.5", sign=1];
R7 -> RPb  [arrowhead=tee, color=red, dir=forward, key=1, penwidth="2.5", sign="-1"];
R1 -> R2b  [arrowhead=tee, color=red, dir=forward, key=0, penwidth="2.5", sign="-1"];
R1 -> R2a  [arrowhead=normal, color=forestgreen, dir=forward, key=0, penwidth="2.5", sign=1];
R1 -> R3  [arrowhead=normal, color=forestgreen, dir=forward, key=0, penwidth="2.5", sign=1];
RPc1 -> Tc2  [arrowhead=tee, color=red, dir=forward, key=0, penwidth="2.5", sign="-1"];
RPc1 -> Tc2  [arrowhead=normal, color=forestgreen, dir=forward, key=1, penwidth="2.5", sign=1];
R3 -> Biomass  [arrowhead=normal, color=forestgreen, dir=forward, key=0, penwidth="2.5", sign=1];
Carbon2 -> Tc2  [arrowhead=normal, color=forestgreen, dir=forward, key=0, penwidth="2.5", sign=1];
Carbon1 -> RPc1  [arrowhead=normal, color=forestgreen, dir=forward, key=0, penwidth="2.5", sign=1];
Carbon1 -> RPc1  [arrowhead=tee, color=red, dir=forward, key=1, penwidth="2.5", sign="-1"];
Carbon1 -> Tc1  [arrowhead=normal, color=forestgreen, dir=forward, key=0, penwidth="2.5", sign=1];
Fext -> R3  [arrowhead=normal, color=forestgreen, dir=forward, key=0, penwidth="2.5", sign=1];
R5b -> RPO2  [arrowhead=normal, color=forestgreen, dir=forward, key=0, penwidth="2.5", sign=1];
R5b -> RPO2  [arrowhead=tee, color=red, dir=forward, key=1, penwidth="2.5", sign="-1"];
R5b -> NADH  [arrowhead=normal, color=forestgreen, dir=forward, key=0, penwidth="2.5", sign=1];
R5b -> R2b  [arrowhead=normal, color=forestgreen, dir=forward, key=0, penwidth="2.5", sign=1];
R5a -> RPO2  [arrowhead=normal, color=forestgreen, dir=forward, key=0, penwidth="2.5", sign=1];
R5a -> RPO2  [arrowhead=tee, color=red, dir=forward, key=1, penwidth="2.5", sign="-1"];
R5a -> NADH  [arrowhead=normal, color=forestgreen, dir=forward, key=0, penwidth="2.5", sign=1];
R5a -> R2b  [arrowhead=normal, color=forestgreen, dir=forward, key=0, penwidth="2.5", sign=1];
}
