"TR:Cell:CellLine","TR:Glutamine","TR:Proline","DA:Biomass","DV:Biomass"
1,1,1,0,0
1,1,1,1,0
1,1,1,5,1
1,1,1,8,1
1,1,1,9,1
1,1,0,0,0
1,1,0,1,0
1,1,0,5,1
1,1,0,8,1
1,1,0,9,1
1,0,1,0,0
1,0,1,1,0
1,0,1,5,1
1,0,1,8,1
1,0,1,9,1