"TR:Cell:CellLine","DA:Biomass","DV:Biomass","DA:Glutamine","DV:Glutamine","DA:Proline","DV:Proline"
1,0,0,0,10,0,10
1,1,0.01,1,9.99,1,10
1,2,0.04,2,9.95,2,9.97
1,3,0.13,3,9.87,3,9.88
1,4,0.22,4,9.67,4,9.88
1,5,0.38,5,9.35,5,9.88
1,6,0.66,6,8.81,6,9.88
1,7,1.12,7,7.89,7,9.88
1,8,1.9,8,6.33,8,9.88
1,9,3.21,9,3.7,9,9.88
1,10,5.44,10,0,10,9.88
1,11,5.44,11,0,11,9.88
1,12,5.44,12,0,12,9.88
1,13,5.44,13,0,13,9.88
1,14,5.44,14,0,14,9.88
1,15,5.44,15,0,15,9.88
1,16,5.44,16,0,16,9.88
1,17,5.44,17,0,17,9.88
1,18,5.44,18,0,18,9.88
1,19,5.44,19,0,19,9.88
1,20,5.44,20,0,20,9.88
1,21,5.44,21,0,21,9.88
1,22,5.44,22,0,22,9.88
1,23,5.44,23,0,23,9.88
1,24,5.44,24,0,24,9.88
1,25,5.44,25,0,25,9.88
1,26,5.44,26,0,26,9.88
1,27,5.44,27,0,27,9.88
1,28,5.44,28,0,28,9.88
1,29,5.44,29,0,29,9.88
1,30,5.44,30,0,30,9.88
1,31,5.44,31,0,31,9.88
1,32,5.44,32,0,32,9.88
1,33,5.44,33,0,33,9.88
1,34,5.44,34,0,34,9.88
1,35,5.44,35,0,35,9.88
1,36,5.44,36,0,36,9.88
1,37,5.44,37,0,37,9.88
1,38,5.44,38,0,38,9.88
1,39,5.44,39,0,39,9.88
1,40,5.44,40,0,40,9.88
1,41,5.44,41,0,41,9.88
1,42,5.44,42,0,42,9.88
1,43,5.44,43,0,43,9.88
1,44,5.44,44,0,44,9.88
1,45,5.44,45,0,45,9.88
1,46,5.44,46,0,46,9.88
1,47,5.44,47,0,47,9.88
1,48,5.44,48,0,48,9.88
1,49,5.44,49,0,49,9.88
1,50,5.44,50,0,50,9.88
1,51,5.44,51,0,51,9.88
1,52,5.44,52,0,52,9.88
1,53,5.44,53,0,53,9.88
1,54,5.44,54,0,54,9.88
1,55,5.44,55,0,55,9.88
1,56,5.44,56,0,56,9.88
1,57,5.44,57,0,57,9.88
1,58,5.44,58,0,58,9.88
1,59,5.44,59,0,59,9.88
1,60,5.44,60,0,60,9.88
1,61,5.44,61,0,61,9.88
1,62,5.44,62,0,62,9.88
1,63,5.44,63,0,63,9.88
1,64,5.44,64,0,64,9.88
1,65,5.44,65,0,65,9.88
1,66,5.44,66,0,66,9.88
1,67,5.44,67,0,67,9.88
1,68,5.44,68,0,68,9.88
1,69,5.44,69,0,69,9.88
1,70,5.44,70,0,70,9.88
1,71,5.44,71,0,71,9.88
1,72,5.44,72,0,72,9.88
1,73,5.44,73,0,73,9.88
1,74,5.44,74,0,74,9.88
1,75,5.44,75,0,75,9.88
1,76,5.44,76,0,76,9.88
1,77,5.44,77,0,77,9.88
1,78,5.44,78,0,78,9.88
1,79,5.44,79,0,79,9.88
1,80,5.44,80,0,80,9.88
1,81,5.44,81,0,81,9.88
1,82,5.44,82,0,82,9.88
1,83,5.44,83,0,83,9.88
1,84,5.44,84,0,84,9.88
1,85,5.44,85,0,85,9.88
1,86,5.44,86,0,86,9.88
1,87,5.44,87,0,87,9.88
1,88,5.44,88,0,88,9.88
1,89,5.44,89,0,89,9.88
1,90,5.44,90,0,90,9.88
1,91,5.44,91,0,91,9.88
1,92,5.44,92,0,92,9.88
1,93,5.44,93,0,93,9.88
1,94,5.44,94,0,94,9.88
1,95,5.44,95,0,95,9.88
1,96,5.44,96,0,96,9.88
1,97,5.44,97,0,97,9.88
1,98,5.44,98,0,98,9.88
1,99,5.44,99,0,99,9.88
1,100,5.44,100,0,100,9.88
1,101,5.44,101,0,101,9.88
1,102,5.44,102,0,102,9.88
1,103,5.44,103,0,103,9.88
1,104,5.44,104,0,104,9.88
1,105,5.44,105,0,105,9.88
1,106,5.44,106,0,106,9.88
1,107,5.44,107,0,107,9.88
1,108,5.44,108,0,108,9.88
1,109,5.44,109,0,109,9.88
1,110,5.44,110,0,110,9.88
1,111,5.44,111,0,111,9.88
1,112,5.44,112,0,112,9.88
1,113,5.44,113,0,113,9.88
1,114,5.44,114,0,114,9.88
1,115,5.44,115,0,115,9.88
1,116,5.44,116,0,116,9.88
1,117,5.44,117,0,117,9.88
1,118,5.44,118,0,118,9.88
1,119,5.44,119,0,119,9.88
1,120,5.44,120,0,120,9.88
1,121,5.44,121,0,121,9.88
1,122,5.44,122,0,122,9.88
1,123,5.44,123,0,123,9.88
1,124,5.44,124,0,124,9.88
1,125,5.44,125,0,125,9.88
1,126,5.44,126,0,126,9.88
1,127,5.44,127,0,127,9.88
1,128,5.44,128,0,128,9.88
1,129,5.44,129,0,129,9.88
1,130,5.44,130,0,130,9.88
1,131,5.44,131,0,131,9.88
1,132,5.44,132,0,132,9.88
1,133,5.44,133,0,133,9.88
1,134,5.44,134,0,134,9.88
1,135,5.44,135,0,135,9.88
1,136,5.44,136,0,136,9.88
1,137,5.44,137,0,137,9.88
1,138,5.44,138,0,138,9.88
1,139,5.44,139,0,139,9.88
1,140,5.44,140,0,140,9.88
1,141,5.44,141,0,141,9.88
1,142,5.44,142,0,142,9.88
1,143,5.44,143,0,143,9.88
1,144,5.44,144,0,144,9.88
1,145,5.44,145,0,145,9.88
1,146,5.44,146,0,146,9.88
1,147,5.44,147,0,147,9.88
1,148,5.44,148,0,148,9.88
1,149,5.44,149,0,149,9.88
