Steady state analysis result

Entity name	State 1	State 2	State 3	State 4(Attractor)	Final constraint lower bound	Final constraint upper bound	
Tp	0	1	0	1	1.0E-10	10.5	
phcS	0	0	0	0	0.0	0.0	
Proline	0	0	0	0	0.0	0.0	
M_3OHMAME	0	0	0	0	0.0	0.0	
Biomass	0	0	0	0	0.0	0.0	
phcA	0	1	0	0	0.0	0.0	
phcR	0	1	1	1	1.0	1.0	
phcB	0	0	0	0	0.0	0.0	
