digraph "" {
Assimil [color=black, fillcolor=white, fontname=Helvetica, fontsize=18, shape=ellipse, style="filled, bold"];
phcA [color=orangered, fillcolor=orangered, fontname=Helvetica, fontsize=18, shape=ellipse, style="filled, bold"];
Glutamine [color=olivedrab3, fillcolor=olivedrab3, fontname=Helvetica, fontsize=18, shape=ellipse, style="filled, bold"];
EPS [color=lightblue, fillcolor=lightblue, fontname=Helvetica, fontsize=18, shape=ellipse, style="filled, bold"];
Tp [color=lightblue, fillcolor=lightblue, fontname=Helvetica, fontsize=18, shape=ellipse, style="filled, bold"];
Biomass [color=olivedrab3, fillcolor=olivedrab3, fontname=Helvetica, fontsize=18, shape=ellipse, style="filled, bold"];
Tg [color=lightblue, fillcolor=lightblue, fontname=Helvetica, fontsize=18, shape=ellipse, style="filled, bold"];
"gate-1" [color=black, fillcolor=black, fixedsize=True, fontname=Helvetica, fontsize=18, gate=True, height="0.2", label=".", shape=ellipse, style="filled, bold", width="0.2"];
"gate-2" [color=black, fillcolor=black, fixedsize=True, fontname=Helvetica, fontsize=18, gate=True, height="0.2", label=".", shape=ellipse, style="filled, bold", width="0.2"];
Proline [color=olivedrab3, fillcolor=olivedrab3, fontname=Helvetica, fontsize=18, shape=ellipse, style="filled, bold"];
Assimil -> Biomass  [arrowhead=normal, color=forestgreen, dir=forward, key=0, penwidth="2.5", sign=1];
phcA -> "gate-2"  [arrowhead=normal, color=forestgreen, dir=forward, key=0, penwidth="2.5", sign=1];
phcA -> EPS  [arrowhead=tee, color=red, dir=forward, key=0, penwidth="2.5", sign="-1"];
Glutamine -> Tg  [arrowhead=normal, color=forestgreen, dir=forward, key=0, penwidth="2.5", sign=1];
EPS -> "gate-1"  [arrowhead=tee, color=red, dir=forward, key=0, penwidth="2.5", sign="-1"];
Tp -> Assimil  [arrowhead=normal, color=forestgreen, dir=forward, key=0, penwidth="2.5", sign=1];
Tp -> "gate-1"  [arrowhead=tee, color=red, dir=forward, key=0, penwidth="2.5", sign="-1"];
Tg -> Assimil  [arrowhead=normal, color=forestgreen, dir=forward, key=0, penwidth="2.5", sign=1];
Tg -> "gate-1"  [arrowhead=normal, color=forestgreen, dir=forward, key=0, penwidth="2.5", sign=1];
"gate-1" -> phcA  [arrowhead=normal, color=forestgreen, dir=forward, key=0, penwidth="2.5", sign=1];
"gate-2" -> Tp  [arrowhead=normal, color=forestgreen, dir=forward, key=0, penwidth="2.5", sign=1];
Proline -> "gate-2"  [arrowhead=normal, color=forestgreen, dir=forward, key=0, penwidth="2.5", sign=1];
}
