digraph "" {
Assimil [color=lightblue, fillcolor=lightblue, fontname=Helvetica, fontsize=18, shape=ellipse, style="filled, bold"];
phcA [color=black, fillcolor=white, fontname=Helvetica, fontsize=18, shape=ellipse, style="filled, bold"];
Glutamine [color=orangered, fillcolor=SkyBlue2, fontname=Helvetica, fontsize=18, shape=ellipse, style="filled, bold, diagonals"];
Biomass [color=lightblue, fillcolor=lightblue, fontname=Helvetica, fontsize=18, shape=ellipse, style="filled, bold"];
Tp [color=lightblue, fillcolor=lightblue, fontname=Helvetica, fontsize=18, shape=ellipse, style="filled, bold"];
Tg [color=lightblue, fillcolor=lightblue, fontname=Helvetica, fontsize=18, shape=ellipse, style="filled, bold"];
"gate-1" [color=black, fillcolor=black, fixedsize=True, fontname=Helvetica, fontsize=18, gate=True, height="0.2", label=".", shape=ellipse, style="filled, bold", width="0.2"];
"gate-2" [color=black, fillcolor=black, fixedsize=True, fontname=Helvetica, fontsize=18, gate=True, height="0.2", label=".", shape=ellipse, style="filled, bold", width="0.2"];
M_3OHMAME [color=black, fillcolor=white, fontname=Helvetica, fontsize=18, shape=ellipse, style="filled, bold"];
Proline [color=orangered, fillcolor=SkyBlue2, fontname=Helvetica, fontsize=18, shape=ellipse, style="filled, bold, diagonals"];
Assimil -> Biomass  [arrowhead=normal, color=forestgreen, dir=forward, key=0, penwidth="2.5", sign=1];
phcA -> "gate-2"  [arrowhead=normal, color=forestgreen, dir=forward, key=0, penwidth="2.5", sign=1];
Glutamine -> Tg  [arrowhead=normal, color=forestgreen, dir=forward, key=0, penwidth="2.5", sign=1];
Biomass -> M_3OHMAME  [arrowhead=normal, color=forestgreen, dir=forward, key=0, penwidth="2.5", sign=1];
Tp -> Assimil  [arrowhead=normal, color=forestgreen, dir=forward, key=0, penwidth="2.5", sign=1];
Tg -> Assimil  [arrowhead=normal, color=forestgreen, dir=forward, key=0, penwidth="2.5", sign=1];
Tg -> "gate-1"  [arrowhead=tee, color=red, dir=forward, key=0, penwidth="2.5", sign="-1"];
"gate-1" -> phcA  [arrowhead=normal, color=forestgreen, dir=forward, key=0, penwidth="2.5", sign=1];
"gate-2" -> Tp  [arrowhead=normal, color=forestgreen, dir=forward, key=0, penwidth="2.5", sign=1];
M_3OHMAME -> "gate-1"  [arrowhead=normal, color=forestgreen, dir=forward, key=0, penwidth="2.5", sign=1];
Proline -> "gate-2"  [arrowhead=normal, color=forestgreen, dir=forward, key=0, penwidth="2.5", sign=1];
}
