digraph "" {
Assimil [color=lightblue, fillcolor=lightblue, fontname=Helvetica, fontsize=18, shape=ellipse, style="filled, bold"];
phcA [color=black, fillcolor=white, fontname=Helvetica, fontsize=18, shape=ellipse, style="filled, bold"];
Biomass [color=lightblue, fillcolor=lightblue, fontname=Helvetica, fontsize=18, shape=ellipse, style="filled, bold"];
Tp [color=lightblue, fillcolor=lightblue, fontname=Helvetica, fontsize=18, shape=ellipse, style="filled, bold"];
Glutamine [color=orangered, fillcolor=SkyBlue2, fontname=Helvetica, fontsize=18, shape=ellipse, style="filled, bold, diagonals"];
Tg [color=lightblue, fillcolor=lightblue, fontname=Helvetica, fontsize=18, shape=ellipse, style="filled, bold"];
Proline [color=orangered, fillcolor=SkyBlue2, fontname=Helvetica, fontsize=18, shape=ellipse, style="filled, bold, diagonals"];
Assimil -> Biomass  [arrowhead=normal, color=forestgreen, dir=forward, key=0, penwidth="2.5", sign=1];
phcA -> Tg  [arrowhead=tee, color=red, dir=forward, key=0, penwidth="2.5", sign="-1"];
phcA -> Tg  [arrowhead=normal, color=forestgreen, dir=forward, key=1, penwidth="2.5", sign=1];
phcA -> Tp  [arrowhead=tee, color=red, dir=forward, key=0, penwidth="2.5", sign="-1"];
phcA -> Tp  [arrowhead=normal, color=forestgreen, dir=forward, key=1, penwidth="2.5", sign=1];
Biomass -> phcA  [arrowhead=normal, color=forestgreen, dir=forward, key=0, penwidth="2.5", sign=1];
Tp -> Assimil  [arrowhead=normal, color=forestgreen, dir=forward, key=0, penwidth="2.5", sign=1];
Tp -> phcA  [arrowhead=tee, color=red, dir=forward, key=0, penwidth="2.5", sign="-1"];
Tp -> phcA  [arrowhead=normal, color=forestgreen, dir=forward, key=1, penwidth="2.5", sign=1];
Glutamine -> Tg  [arrowhead=normal, color=forestgreen, dir=forward, key=0, penwidth="2.5", sign=1];
Tg -> Assimil  [arrowhead=normal, color=forestgreen, dir=forward, key=0, penwidth="2.5", sign=1];
Tg -> phcA  [arrowhead=tee, color=red, dir=forward, key=0, penwidth="2.5", sign="-1"];
Tg -> phcA  [arrowhead=normal, color=forestgreen, dir=forward, key=1, penwidth="2.5", sign=1];
Proline -> Tp  [arrowhead=normal, color=forestgreen, dir=forward, key=0, penwidth="2.5", sign=1];
}
