Assimil<-Tg,Assimil<-Tp,Assimil<-Tg+Tp,phcA<-!Tg,phcA<-Tg,phcA<-EPS,phcA<-!EPS,phcA<-!Tp,phcA<-Tp,phcA<-phcR,phcA<-!phcR,phcA<-EPS+!Tg,phcA<-!EPS+!Tg,phcA<-!Tg+!Tp,phcA<-!Tg+Tp,phcA<-!Tg+phcR,phcA<-!Tg+!phcR,phcA<-EPS+Tg,phcA<-!EPS+Tg,phcA<-Tg+!Tp,phcA<-Tg+Tp,phcA<-Tg+phcR,phcA<-Tg+!phcR,phcA<-EPS+!Tp,phcA<-EPS+Tp,phcA<-EPS+phcR,phcA<-EPS+!phcR,phcA<-!EPS+!Tp,phcA<-!EPS+Tp,phcA<-!EPS+phcR,phcA<-!EPS+!phcR,phcA<-!Tp+phcR,phcA<-!Tp+!phcR,phcA<-Tp+phcR,phcA<-Tp+!phcR,phcA<-EPS+!Tg+!Tp,phcA<-EPS+!Tg+Tp,phcA<-EPS+!Tg+phcR,phcA<-EPS+!Tg+!phcR,phcA<-!EPS+!Tg+!Tp,phcA<-!EPS+!Tg+Tp,phcA<-!EPS+!Tg+phcR,phcA<-!EPS+!Tg+!phcR,phcA<-!Tg+!Tp+phcR,phcA<-!Tg+!Tp+!phcR,phcA<-!Tg+Tp+phcR,phcA<-!Tg+Tp+!phcR,phcA<-EPS+Tg+!Tp,phcA<-EPS+Tg+Tp,phcA<-EPS+Tg+phcR,phcA<-EPS+Tg+!phcR,phcA<-!EPS+Tg+!Tp,phcA<-!EPS+Tg+Tp,phcA<-!EPS+Tg+phcR,phcA<-!EPS+Tg+!phcR,phcA<-Tg+!Tp+phcR,phcA<-Tg+!Tp+!phcR,phcA<-Tg+Tp+phcR,phcA<-Tg+Tp+!phcR,phcA<-EPS+!Tp+phcR,phcA<-EPS+!Tp+!phcR,phcA<-EPS+Tp+phcR,phcA<-EPS+Tp+!phcR,phcA<-!EPS+!Tp+phcR,phcA<-!EPS+!Tp+!phcR,phcA<-!EPS+Tp+phcR,phcA<-!EPS+Tp+!phcR,phcA<-EPS+!Tg+!Tp+phcR,phcA<-EPS+!Tg+!Tp+!phcR,phcA<-EPS+!Tg+Tp+phcR,phcA<-EPS+!Tg+Tp+!phcR,phcA<-!EPS+!Tg+!Tp+phcR,phcA<-!EPS+!Tg+!Tp+!phcR,phcA<-!EPS+!Tg+Tp+phcR,phcA<-!EPS+!Tg+Tp+!phcR,phcA<-EPS+Tg+!Tp+phcR,phcA<-EPS+Tg+!Tp+!phcR,phcA<-EPS+Tg+Tp+phcR,phcA<-EPS+Tg+Tp+!phcR,phcA<-!EPS+Tg+!Tp+phcR,phcA<-!EPS+Tg+!Tp+!phcR,phcA<-!EPS+Tg+Tp+phcR,phcA<-!EPS+Tg+Tp+!phcR,phcB<-Biomass,phcR<-phcS,phcR<-!phcS,Biomass<-Assimil,Tp<-!phcA,Tp<-phcA,Tp<-Proline,Tp<-Proline+!phcA,Tp<-Proline+phcA,3OHMAME<-phcB,phcS<-3OHMAME,EPS<-!phcA,Tg<-!phcA,Tg<-phcA,Tg<-Glutamine,Tg<-Glutamine+!phcA,Tg<-Glutamine+phcA
1,1,0,0,0,0,0,0,0,0,0,0,0,0,0,0,0,0,0,0,0,0,0,0,0,0,0,0,0,0,0,0,0,0,0,0,0,0,0,0,0,0,0,0,0,0,0,0,0,0,0,0,0,0,0,0,0,0,0,0,0,0,0,0,0,0,0,0,0,0,0,0,0,0,0,0,0,0,0,0,0,0,0,0,0,0,1,0,0,1,0,0,0,0,0,0,0,1,0,0
1,1,0,0,0,0,0,0,0,0,0,0,0,0,0,0,0,0,0,0,0,0,0,0,0,0,0,0,0,0,0,0,0,0,0,0,0,0,0,0,0,0,0,0,0,0,0,0,0,0,0,0,0,0,0,0,0,0,0,0,0,0,0,0,0,0,0,0,0,0,0,0,0,0,0,0,0,0,0,0,0,0,0,0,0,0,1,0,0,0,0,1,0,0,0,0,0,1,0,0
1,1,0,0,0,0,0,0,0,0,0,0,0,0,0,0,0,0,0,0,0,0,0,0,0,0,0,0,0,0,0,0,0,0,0,0,0,0,0,0,0,0,0,0,0,0,0,0,0,0,0,0,0,0,0,0,0,0,0,0,0,0,0,0,0,0,0,0,0,0,0,0,0,0,0,0,0,0,0,0,0,0,0,0,0,0,1,0,0,0,1,0,0,0,0,0,0,1,0,0
