"TR:Cell:CellLine","DA:Biomass","DV:Biomass","DA:Carbon1","DV:Carbon1","DA:Carbon2","DV:Carbon2"
1,0,0,0,1,0,1
1,1,0,1,0.99,1,1
1,2,0.02,2,0.97,2,0.98
1,3,0.03,3,0.93,3,0.98
1,4,0.04,4,0.88,4,0.98
1,5,0.06,5,0.82,5,0.98
1,6,0.09,6,0.73,6,0.98
1,7,0.14,7,0.59,7,0.98
1,8,0.19,8,0.41,8,0.98
1,9,0.28,9,0.16,9,0.98
1,10,0.33,10,0,10,0.98
1,11,0.33,11,0,11,0.98
1,12,0.47,12,0,12,0.55
1,13,0.66,13,0,13,0
1,14,0.66,14,0,14,0
1,15,0.66,15,0,15,0
1,16,0.66,16,0,16,0
1,17,0.66,17,0,17,0
1,18,0.66,18,0,18,0
1,19,0.66,19,0,19,0
1,20,0.66,20,0,20,0
1,21,0.66,21,0,21,0
1,22,0.66,22,0,22,0
1,23,0.66,23,0,23,0
1,24,0.66,24,0,24,0
1,25,0.66,25,0,25,0
1,26,0.66,26,0,26,0
1,27,0.66,27,0,27,0
1,28,0.66,28,0,28,0
1,29,0.66,29,0,29,0
1,30,0.66,30,0,30,0
1,31,0.66,31,0,31,0
1,32,0.66,32,0,32,0
1,33,0.66,33,0,33,0
1,34,0.66,34,0,34,0
1,35,0.66,35,0,35,0
1,36,0.66,36,0,36,0
1,37,0.66,37,0,37,0
1,38,0.66,38,0,38,0
1,39,0.66,39,0,39,0
1,40,0.66,40,0,40,0
1,41,0.66,41,0,41,0
1,42,0.66,42,0,42,0
1,43,0.66,43,0,43,0
1,44,0.66,44,0,44,0
1,45,0.66,45,0,45,0
1,46,0.66,46,0,46,0
1,47,0.66,47,0,47,0
1,48,0.66,48,0,48,0
1,49,0.66,49,0,49,0
1,50,0.66,50,0,50,0
1,51,0.66,51,0,51,0
1,52,0.66,52,0,52,0
1,53,0.66,53,0,53,0
1,54,0.66,54,0,54,0
1,55,0.66,55,0,55,0
1,56,0.66,56,0,56,0
1,57,0.66,57,0,57,0
1,58,0.66,58,0,58,0
1,59,0.66,59,0,59,0
1,60,0.66,60,0,60,0
1,61,0.66,61,0,61,0
1,62,0.66,62,0,62,0
1,63,0.66,63,0,63,0
1,64,0.66,64,0,64,0
1,65,0.66,65,0,65,0
1,66,0.66,66,0,66,0
1,67,0.66,67,0,67,0
1,68,0.66,68,0,68,0
1,69,0.66,69,0,69,0
1,70,0.66,70,0,70,0
1,71,0.66,71,0,71,0
1,72,0.66,72,0,72,0
1,73,0.66,73,0,73,0
1,74,0.66,74,0,74,0
1,75,0.66,75,0,75,0
1,76,0.66,76,0,76,0
1,77,0.66,77,0,77,0
1,78,0.66,78,0,78,0
1,79,0.66,79,0,79,0
1,80,0.66,80,0,80,0
1,81,0.66,81,0,81,0
1,82,0.66,82,0,82,0
1,83,0.66,83,0,83,0
1,84,0.66,84,0,84,0
1,85,0.66,85,0,85,0
1,86,0.66,86,0,86,0
1,87,0.66,87,0,87,0
1,88,0.66,88,0,88,0
1,89,0.66,89,0,89,0
1,90,0.66,90,0,90,0
1,91,0.66,91,0,91,0
1,92,0.66,92,0,92,0
1,93,0.66,93,0,93,0
1,94,0.66,94,0,94,0
1,95,0.66,95,0,95,0
1,96,0.66,96,0,96,0
1,97,0.66,97,0,97,0
1,98,0.66,98,0,98,0
1,99,0.66,99,0,99,0
1,100,0.66,100,0,100,0
1,101,0.66,101,0,101,0
1,102,0.66,102,0,102,0
1,103,0.66,103,0,103,0
1,104,0.66,104,0,104,0
1,105,0.66,105,0,105,0
1,106,0.66,106,0,106,0
1,107,0.66,107,0,107,0
1,108,0.66,108,0,108,0
1,109,0.66,109,0,109,0
1,110,0.66,110,0,110,0
1,111,0.66,111,0,111,0
1,112,0.66,112,0,112,0
1,113,0.66,113,0,113,0
1,114,0.66,114,0,114,0
1,115,0.66,115,0,115,0
1,116,0.66,116,0,116,0
1,117,0.66,117,0,117,0
1,118,0.66,118,0,118,0
1,119,0.66,119,0,119,0
1,120,0.66,120,0,120,0
1,121,0.66,121,0,121,0
1,122,0.66,122,0,122,0
1,123,0.66,123,0,123,0
1,124,0.66,124,0,124,0
1,125,0.66,125,0,125,0
1,126,0.66,126,0,126,0
1,127,0.66,127,0,127,0
1,128,0.66,128,0,128,0
1,129,0.66,129,0,129,0
1,130,0.66,130,0,130,0
1,131,0.66,131,0,131,0
1,132,0.66,132,0,132,0
1,133,0.66,133,0,133,0
1,134,0.66,134,0,134,0
1,135,0.66,135,0,135,0
1,136,0.66,136,0,136,0
1,137,0.66,137,0,137,0
1,138,0.66,138,0,138,0
1,139,0.66,139,0,139,0
1,140,0.66,140,0,140,0
1,141,0.66,141,0,141,0
1,142,0.66,142,0,142,0
1,143,0.66,143,0,143,0
1,144,0.66,144,0,144,0
1,145,0.66,145,0,145,0
1,146,0.66,146,0,146,0
1,147,0.66,147,0,147,0
1,148,0.66,148,0,148,0
1,149,0.66,149,0,149,0
