Time	Biomass	Carbon1	Carbon2	X
0.0	0.0	1.0	1.0	0.01
0.1	0.003981	0.987527	1.0	0.013981
0.2	0.017328	0.966616	0.97909	0.027328
0.30000000000000004	0.028207	0.932529	0.97909	0.038207
0.4	0.043416	0.884872	0.97909	0.053416
0.5	0.064681	0.818244	0.97909	0.074681
0.6000000000000001	0.09441	0.725091	0.97909	0.10441
0.7000000000000001	0.135975	0.594855	0.97909	0.145975
0.8	0.194086	0.412773	0.97909	0.204086
0.9	0.275331	0.158207	0.97909	0.285331
1.0	0.330565	0.0	0.97909	0.340565
1.1	0.330565	0.0	0.97909	0.340565
1.2000000000000002	0.466141	0.0	0.554287	0.476141
1.3	0.655687	0.0	0.0	0.665687
1.4000000000000001	0.655687	0.0	0.0	0.665687
1.5	0.655687	0.0	0.0	0.665687
1.6	0.655687	0.0	0.0	0.665687
1.7000000000000002	0.655687	0.0	0.0	0.665687
1.8	0.655687	0.0	0.0	0.665687
1.9000000000000001	0.655687	0.0	0.0	0.665687
2.0	0.655687	0.0	0.0	0.665687
2.1	0.655687	0.0	0.0	0.665687
2.2	0.655687	0.0	0.0	0.665687
2.3000000000000003	0.655687	0.0	0.0	0.665687
2.4000000000000004	0.655687	0.0	0.0	0.665687
2.5	0.655687	0.0	0.0	0.665687
2.6	0.655687	0.0	0.0	0.665687
2.7	0.655687	0.0	0.0	0.665687
2.8000000000000003	0.655687	0.0	0.0	0.665687
2.9000000000000004	0.655687	0.0	0.0	0.665687
3.0	0.655687	0.0	0.0	0.665687
3.1	0.655687	0.0	0.0	0.665687
3.2	0.655687	0.0	0.0	0.665687
3.3000000000000003	0.655687	0.0	0.0	0.665687
3.4000000000000004	0.655687	0.0	0.0	0.665687
3.5	0.655687	0.0	0.0	0.665687
3.6	0.655687	0.0	0.0	0.665687
3.7	0.655687	0.0	0.0	0.665687
3.8000000000000003	0.655687	0.0	0.0	0.665687
3.9000000000000004	0.655687	0.0	0.0	0.665687
4.0	0.655687	0.0	0.0	0.665687
4.1000000000000005	0.655687	0.0	0.0	0.665687
4.2	0.655687	0.0	0.0	0.665687
4.3	0.655687	0.0	0.0	0.665687
4.4	0.655687	0.0	0.0	0.665687
4.5	0.655687	0.0	0.0	0.665687
4.6000000000000005	0.655687	0.0	0.0	0.665687
4.7	0.655687	0.0	0.0	0.665687
4.800000000000001	0.655687	0.0	0.0	0.665687
4.9	0.655687	0.0	0.0	0.665687
5.0	0.655687	0.0	0.0	0.665687
5.1000000000000005	0.655687	0.0	0.0	0.665687
5.2	0.655687	0.0	0.0	0.665687
5.300000000000001	0.655687	0.0	0.0	0.665687
5.4	0.655687	0.0	0.0	0.665687
5.5	0.655687	0.0	0.0	0.665687
5.6000000000000005	0.655687	0.0	0.0	0.665687
5.7	0.655687	0.0	0.0	0.665687
5.800000000000001	0.655687	0.0	0.0	0.665687
5.9	0.655687	0.0	0.0	0.665687
6.0	0.655687	0.0	0.0	0.665687
6.1000000000000005	0.655687	0.0	0.0	0.665687
6.2	0.655687	0.0	0.0	0.665687
6.300000000000001	0.655687	0.0	0.0	0.665687
6.4	0.655687	0.0	0.0	0.665687
6.5	0.655687	0.0	0.0	0.665687
6.6000000000000005	0.655687	0.0	0.0	0.665687
6.7	0.655687	0.0	0.0	0.665687
6.800000000000001	0.655687	0.0	0.0	0.665687
6.9	0.655687	0.0	0.0	0.665687
7.0	0.655687	0.0	0.0	0.665687
7.1000000000000005	0.655687	0.0	0.0	0.665687
7.2	0.655687	0.0	0.0	0.665687
7.300000000000001	0.655687	0.0	0.0	0.665687
7.4	0.655687	0.0	0.0	0.665687
7.5	0.655687	0.0	0.0	0.665687
7.6000000000000005	0.655687	0.0	0.0	0.665687
7.7	0.655687	0.0	0.0	0.665687
7.800000000000001	0.655687	0.0	0.0	0.665687
7.9	0.655687	0.0	0.0	0.665687
8.0	0.655687	0.0	0.0	0.665687
8.1	0.655687	0.0	0.0	0.665687
8.200000000000001	0.655687	0.0	0.0	0.665687
8.3	0.655687	0.0	0.0	0.665687
8.4	0.655687	0.0	0.0	0.665687
8.5	0.655687	0.0	0.0	0.665687
8.6	0.655687	0.0	0.0	0.665687
8.700000000000001	0.655687	0.0	0.0	0.665687
8.8	0.655687	0.0	0.0	0.665687
8.9	0.655687	0.0	0.0	0.665687
9.0	0.655687	0.0	0.0	0.665687
9.1	0.655687	0.0	0.0	0.665687
9.200000000000001	0.655687	0.0	0.0	0.665687
9.3	0.655687	0.0	0.0	0.665687
9.4	0.655687	0.0	0.0	0.665687
9.5	0.655687	0.0	0.0	0.665687
9.600000000000001	0.655687	0.0	0.0	0.665687
9.700000000000001	0.655687	0.0	0.0	0.665687
9.8	0.655687	0.0	0.0	0.665687
9.9	0.655687	0.0	0.0	0.665687
10.0	0.655687	0.0	0.0	0.665687
10.100000000000001	0.655687	0.0	0.0	0.665687
10.200000000000001	0.655687	0.0	0.0	0.665687
10.3	0.655687	0.0	0.0	0.665687
10.4	0.655687	0.0	0.0	0.665687
10.5	0.655687	0.0	0.0	0.665687
10.600000000000001	0.655687	0.0	0.0	0.665687
10.700000000000001	0.655687	0.0	0.0	0.665687
10.8	0.655687	0.0	0.0	0.665687
10.9	0.655687	0.0	0.0	0.665687
11.0	0.655687	0.0	0.0	0.665687
11.100000000000001	0.655687	0.0	0.0	0.665687
11.200000000000001	0.655687	0.0	0.0	0.665687
11.3	0.655687	0.0	0.0	0.665687
11.4	0.655687	0.0	0.0	0.665687
11.5	0.655687	0.0	0.0	0.665687
11.600000000000001	0.655687	0.0	0.0	0.665687
11.700000000000001	0.655687	0.0	0.0	0.665687
11.8	0.655687	0.0	0.0	0.665687
11.9	0.655687	0.0	0.0	0.665687
12.0	0.655687	0.0	0.0	0.665687
12.100000000000001	0.655687	0.0	0.0	0.665687
12.200000000000001	0.655687	0.0	0.0	0.665687
12.3	0.655687	0.0	0.0	0.665687
12.4	0.655687	0.0	0.0	0.665687
12.5	0.655687	0.0	0.0	0.665687
12.600000000000001	0.655687	0.0	0.0	0.665687
12.700000000000001	0.655687	0.0	0.0	0.665687
12.8	0.655687	0.0	0.0	0.665687
12.9	0.655687	0.0	0.0	0.665687
13.0	0.655687	0.0	0.0	0.665687
13.100000000000001	0.655687	0.0	0.0	0.665687
13.200000000000001	0.655687	0.0	0.0	0.665687
13.3	0.655687	0.0	0.0	0.665687
13.4	0.655687	0.0	0.0	0.665687
13.5	0.655687	0.0	0.0	0.665687
13.600000000000001	0.655687	0.0	0.0	0.665687
13.700000000000001	0.655687	0.0	0.0	0.665687
13.8	0.655687	0.0	0.0	0.665687
13.9	0.655687	0.0	0.0	0.665687
14.0	0.655687	0.0	0.0	0.665687
14.100000000000001	0.655687	0.0	0.0	0.665687
14.200000000000001	0.655687	0.0	0.0	0.665687
14.3	0.655687	0.0	0.0	0.665687
14.4	0.655687	0.0	0.0	0.665687
14.5	0.655687	0.0	0.0	0.665687
14.600000000000001	0.655687	0.0	0.0	0.665687
14.700000000000001	0.655687	0.0	0.0	0.665687
14.8	0.655687	0.0	0.0	0.665687
14.9	0.655687	0.0	0.0	0.665687
