"TR:Cell:CellLine","DA:Biomass","DV:Biomass","DA:Carbon1","DV:Carbon1","DA:Carbon2","DV:Carbon2","DA:Growth","DV:Growth","DA:RPcl","DV:RPcl","DA:Tc1","DV:Tc1","DA:Tc2","DV:Tc2"
1,0,0,0,1,0,1,0,3.35,0,0,0,10.5,0,0
1,1,0,1,0.99,1,1,1,6.7,1,1,1,10.5,1,10.5
1,2,0.02,2,0.97,2,0.98,2,3.35,2,1,2,10.5,2,0
1,3,0.03,3,0.93,3,0.98,3,3.35,3,1,3,10.5,3,0
1,4,0.04,4,0.88,4,0.98,4,3.35,4,1,4,10.5,4,0
1,5,0.06,5,0.82,5,0.98,5,3.35,5,1,5,10.5,5,0
1,6,0.09,6,0.73,6,0.98,6,3.35,6,1,6,10.5,6,0
1,7,0.14,7,0.59,7,0.98,7,3.35,7,1,7,10.5,7,0
1,8,0.19,8,0.41,8,0.98,8,3.35,8,1,8,10.5,8,0
1,9,0.28,9,0.16,9,0.98,9,1.77,9,1,9,5.54,9,0
1,10,0.33,10,0,10,0.98,10,0,10,0,10,0,10,0
1,11,0.33,11,0,11,0.98,11,3.35,11,0,11,0,11,10.5
1,12,0.47,12,0,12,0.55,12,3.35,12,0,12,0,12,10.5
1,13,0.66,13,0,13,0,13,0,13,0,13,0,13,0
1,14,0.66,14,0,14,0,14,0,14,0,14,0,14,0
1,15,0.66,15,0,15,0,15,0,15,0,15,0,15,0
1,16,0.66,16,0,16,0,16,0,16,0,16,0,16,0
1,17,0.66,17,0,17,0,17,0,17,0,17,0,17,0
1,18,0.66,18,0,18,0,18,0,18,0,18,0,18,0
1,19,0.66,19,0,19,0,19,0,19,0,19,0,19,0
1,20,0.66,20,0,20,0,20,0,20,0,20,0,20,0
1,21,0.66,21,0,21,0,21,0,21,0,21,0,21,0
1,22,0.66,22,0,22,0,22,0,22,0,22,0,22,0
1,23,0.66,23,0,23,0,23,0,23,0,23,0,23,0
1,24,0.66,24,0,24,0,24,0,24,0,24,0,24,0
1,25,0.66,25,0,25,0,25,0,25,0,25,0,25,0
1,26,0.66,26,0,26,0,26,0,26,0,26,0,26,0
1,27,0.66,27,0,27,0,27,0,27,0,27,0,27,0
1,28,0.66,28,0,28,0,28,0,28,0,28,0,28,0
1,29,0.66,29,0,29,0,29,0,29,0,29,0,29,0
1,30,0.66,30,0,30,0,30,0,30,0,30,0,30,0
1,31,0.66,31,0,31,0,31,0,31,0,31,0,31,0
1,32,0.66,32,0,32,0,32,0,32,0,32,0,32,0
1,33,0.66,33,0,33,0,33,0,33,0,33,0,33,0
1,34,0.66,34,0,34,0,34,0,34,0,34,0,34,0
1,35,0.66,35,0,35,0,35,0,35,0,35,0,35,0
1,36,0.66,36,0,36,0,36,0,36,0,36,0,36,0
1,37,0.66,37,0,37,0,37,0,37,0,37,0,37,0
1,38,0.66,38,0,38,0,38,0,38,0,38,0,38,0
1,39,0.66,39,0,39,0,39,0,39,0,39,0,39,0
1,40,0.66,40,0,40,0,40,0,40,0,40,0,40,0
1,41,0.66,41,0,41,0,41,0,41,0,41,0,41,0
1,42,0.66,42,0,42,0,42,0,42,0,42,0,42,0
1,43,0.66,43,0,43,0,43,0,43,0,43,0,43,0
1,44,0.66,44,0,44,0,44,0,44,0,44,0,44,0
1,45,0.66,45,0,45,0,45,0,45,0,45,0,45,0
1,46,0.66,46,0,46,0,46,0,46,0,46,0,46,0
1,47,0.66,47,0,47,0,47,0,47,0,47,0,47,0
1,48,0.66,48,0,48,0,48,0,48,0,48,0,48,0
1,49,0.66,49,0,49,0,49,0,49,0,49,0,49,0
