"TR:Cell:CellLine","DA:Biomass","DV:Biomass","DA:Glutamine","DV:Glutamine","DA:Proline","DV:Proline"
1,0,0,0,10,0,10
1,1,0.02,1,9.98,1,10
1,2,0.22,2,9.88,2,9.9
1,3,0.66,3,9.45,3,9.9
1,4,5.44,4,7.06,4,7.51
1,5,44.46,5,0,5,0
1,6,44.46,6,0,6,0
1,7,44.46,7,0,7,0
1,8,44.46,8,0,8,0
1,9,44.46,9,0,9,0
1,10,44.46,10,0,10,0
1,11,44.46,11,0,11,0
1,12,44.46,12,0,12,0
1,13,44.46,13,0,13,0
1,14,44.46,14,0,14,0
1,15,44.46,15,0,15,0
1,16,44.46,16,0,16,0
1,17,44.46,17,0,17,0
1,18,44.46,18,0,18,0
1,19,44.46,19,0,19,0
