Steady state analysis result

Entity name	State 1	State 2	State 3(Attractor)	Final constraint lower bound	Final constraint upper bound	
R5b	0	0	0	0.0	0.0	
RPO2	0	0	0	0.0	0.0	
Rres	0	1	1	1.0E-10	1.7976931348623157E308	
R8a	0	1	0	0.0	0.0	
R2b	0	0	0	0.0	0.0	
R2a	0	1	1	1.0E-10	1.7976931348623157E308	
Hext	1	1	1	1.0E-10	1.7976931348623157E308	
RPcl	0	1	1	1.0	1.0	
R5a	0	1	1	1.0E-10	1.7976931348623157E308	
Oxygen	1	1	1	1.0E-10	1.7976931348623157E308	
RPb	0	0	0	0.0	0.0	
RPh	0	1	1	1.0	1.0	
Tc2	0	1	0	0.0	0.0	
R7	0	1	1	1.0E-10	1.7976931348623157E308	
Carbon1	1	1	1	1.0E-10	1.7976931348623157E308	
