Assimil<-Tg,Assimil<-Tp,Assimil<-Tg+Tp,phcA<-!Tg,phcA<-Tg,phcA<-3OHMAME,phcA<-!Tp,phcA<-Tp,phcA<-3OHMAME+!Tg,phcA<-!Tg+!Tp,phcA<-!Tg+Tp,phcA<-3OHMAME+Tg,phcA<-Tg+!Tp,phcA<-Tg+Tp,phcA<-3OHMAME+!Tp,phcA<-3OHMAME+Tp,phcA<-3OHMAME+!Tg+!Tp,phcA<-3OHMAME+!Tg+Tp,phcA<-3OHMAME+Tg+!Tp,phcA<-3OHMAME+Tg+Tp,Biomass<-Assimil,Tp<-!phcA,Tp<-phcA,Tp<-Proline,Tp<-Proline+!phcA,Tp<-Proline+phcA,3OHMAME<-Biomass,Tg<-!phcA,Tg<-phcA,Tg<-Glutamine,Tg<-Glutamine+!phcA,Tg<-Glutamine+phcA
1,1,0,0,0,0,0,0,0,0,0,0,0,0,0,0,0,0,0,0,1,0,0,1,0,0,0,0,0,1,0,0
1,1,0,0,0,0,0,0,0,0,0,0,0,0,0,0,0,0,0,0,1,0,0,0,0,1,0,0,0,1,0,0
1,1,0,0,0,0,0,0,0,0,0,0,0,0,0,0,0,0,0,0,1,0,0,0,1,0,0,0,0,1,0,0
