Assimil<-Tg,Assimil<-Tp,Assimil<-Tg+Tp,phcA<-phcR,phcA<-!phcR,phcB<-Biomass,phcR<-phcS,phcR<-!phcS,Biomass<-Assimil,Tp<-!phcA,Tp<-Proline,Tp<-Proline+!phcA,3OHMAME<-phcB,phcS<-3OHMAME,Tg<-Glutamine
1,1,0,0,0,0,0,0,1,0,1,0,0,0,1
1,1,0,0,1,1,1,0,1,0,0,1,1,1,1
1,1,0,0,1,1,0,1,1,0,0,1,1,1,1
1,1,0,1,0,1,0,1,1,0,0,1,1,1,1
1,1,0,1,0,1,1,0,1,0,0,1,1,1,1
