digraph "" {
Assimil [color=black, fillcolor=white, fontname=Helvetica, fontsize=18, shape=ellipse, style="filled, bold"];
phcA [color=orangered, fillcolor=orangered, fontname=Helvetica, fontsize=18, shape=ellipse, style="filled, bold"];
Glutamine [color=olivedrab3, fillcolor=olivedrab3, fontname=Helvetica, fontsize=18, shape=ellipse, style="filled, bold"];
Biomass [color=olivedrab3, fillcolor=olivedrab3, fontname=Helvetica, fontsize=18, shape=ellipse, style="filled, bold"];
Tp [color=lightblue, fillcolor=lightblue, fontname=Helvetica, fontsize=18, shape=ellipse, style="filled, bold"];
Tg [color=lightblue, fillcolor=lightblue, fontname=Helvetica, fontsize=18, shape=ellipse, style="filled, bold"];
"gate-1" [color=black, fillcolor=black, fixedsize=True, fontname=Helvetica, fontsize=18, gate=True, height="0.2", label=".", shape=ellipse, style="filled, bold", width="0.2"];
"gate-2" [color=black, fillcolor=black, fixedsize=True, fontname=Helvetica, fontsize=18, gate=True, height="0.2", label=".", shape=ellipse, style="filled, bold", width="0.2"];
Proline [color=olivedrab3, fillcolor=olivedrab3, fontname=Helvetica, fontsize=18, shape=ellipse, style="filled, bold"];
Assimil -> Biomass  [arrowhead=normal, color=forestgreen, dir=forward, key=0, penwidth="5.0", sign=1, weight="1.0"];
phcA -> "gate-1"  [arrowhead=tee, color=red, dir=forward, key=0, penwidth="1.66666666667", sign="-1", weight="0.333333333333"];
phcA -> "gate-2"  [arrowhead=normal, color=forestgreen, dir=forward, key=0, penwidth="1.66666666667", sign=1, weight="0.333333333333"];
Glutamine -> Tg  [arrowhead=normal, color=forestgreen, dir=forward, key=0, penwidth="5.0", sign=1, weight="1.0"];
Tp -> Assimil  [arrowhead=normal, color=forestgreen, dir=forward, key=0, penwidth="5.0", sign=1, weight="1.0"];
Tg -> Assimil  [arrowhead=normal, color=forestgreen, dir=forward, key=0, penwidth="5.0", sign=1, weight="1.0"];
"gate-1" -> Tp  [arrowhead=normal, color=forestgreen, dir=forward, key=0, penwidth="1.66666666667", sign=1, weight="0.333333333333"];
"gate-2" -> Tp  [arrowhead=normal, color=forestgreen, dir=forward, key=0, penwidth="1.66666666667", sign=1, weight="0.333333333333"];
Proline -> "gate-1"  [arrowhead=normal, color=forestgreen, dir=forward, key=0, penwidth="1.66666666667", sign=1, weight="0.333333333333"];
Proline -> "gate-2"  [arrowhead=normal, color=forestgreen, dir=forward, key=0, penwidth="1.66666666667", sign=1, weight="0.333333333333"];
Proline -> Tp  [arrowhead=normal, color=forestgreen, dir=forward, key=0, penwidth="1.66666666667", sign=1, weight="0.333333333333"];
}
