"TR.Cell.CellLine","DA.Biomass","DV.Biomass","DA.Carbon1","DV.Carbon1","DA.Carbon2","DV.Carbon2","DA.Dext","DV.Dext","DA.Eext","DV.Eext","DA.Fext","DV.Fext","DA.Hext","DV.Hext","DA.Oxygen","DV.Oxygen"
1,0,"=",0,"-",0,"=",0,"+",0,"+",0,"=",0,"=",0,"-"
1,2,"+",2,"-",2,"=",2,"+",2,"+",2,"=",2,"-",2,"-"
1,3,"=",3,"-",3,"=",3,"+",3,"=",3,"=",3,"-",3,"-"
1,4,"+",4,"-",4,"=",4,"+",4,"+",4,"=",4,"-",4,"-"
1,7,"=",7,"-",7,"=",7,"+",7,"+",7,"=",7,"-",7,"-"
1,8,"+",8,"-",8,"=",8,"+",8,"+",8,"=",8,"-",8,"-"
1,10,"+",10,"-",10,"=",10,"+",10,"+",10,"=",10,"-",10,"-"
1,13,"+",13,"-",13,"=",13,"+",13,"+",13,"=",13,"-",13,"-"
1,23,"+",23,"-",23,"=",23,"+",23,"+",23,"=",23,"-",23,"-"
1,125,"+",125,"=",125,"-",125,"+",125,"=",125,"=",125,"=",125,"-"
