"TR:Cell:CellLine","DA:Biomass","DV:Biomass","DA:Carbon1","DV:Carbon1","DA:Carbon2","DV:Carbon2","DA:Dext","DV:Dext","DA:Eext","DV:Eext","DA:Fext","DV:Fext","DA:Hext","DV:Hext","DA:Oxygen","DV:Oxygen"
1,0,0,0,1,0,1,0,0,0,0,0,0,0,1,0,1
1,2,0,2,1,2,1,2,0,2,0,2,0,2,1,2,1
1,3,0,3,1,3,1,3,0,3,0,3,0,3,1,3,1
1,4,0,4,1,4,1,4,0,4,0,4,0,4,1,4,1
1,7,0,7,1,7,1,7,0,7,0,7,0,7,1,7,1
1,8,0,8,1,8,1,8,0,8,0,8,0,8,1,8,1
1,10,0,10,1,10,1,10,1,10,0,10,0,10,1,10,1
1,13,0,13,1,13,1,13,1,13,0,13,0,13,1,13,1
1,23,0,23,1,23,1,23,1,23,1,23,0,23,1,23,1
1,125,1,125,0,125,1,125,1,125,1,125,0,125,0,125,1
1,127,1,127,0,127,1,127,1,127,1,127,0,127,0,127,1
