"TR:Cell:CellLine","DA:Biomass","DV:Biomass","DA:Carbon1","DV:Carbon1","DA:Carbon2","DV:Carbon2","DA:Dext","DV:Dext","DA:Eext","DV:Eext","DA:Fext","DV:Fext","DA:Hext","DV:Hext","DA:Oxygen","DV:Oxygen"
1,0,0,0,10,0,10,0,0,0,0,0,0,0,5,0,100
1,1,0,1,10,1,10,1,0,1,0,1,0,1,5,1,100
1,2,0,2,9.99,2,10,2,0.01,2,0.01,2,0,2,5,2,99.98
1,3,0.01,3,9.98,3,10,3,0.02,3,0.02,3,0,3,4.99,3,99.97
1,4,0.01,4,9.97,4,10,4,0.04,4,0.02,4,0,4,4.98,4,99.95
1,5,0.01,5,9.96,5,10,5,0.05,5,0.03,5,0,5,4.98,5,99.94
1,6,0.02,6,9.95,6,10,6,0.06,6,0.04,6,0,6,4.97,6,99.92
1,7,0.02,7,9.94,7,10,7,0.07,7,0.04,7,0,7,4.97,7,99.91
1,8,0.02,8,9.93,8,10,8,0.08,8,0.05,8,0,8,4.96,8,99.89
1,9,0.02,9,9.92,9,10,9,0.1,9,0.06,9,0,9,4.96,9,99.88
1,10,0.03,10,9.91,10,10,10,0.11,10,0.06,10,0,10,4.95,10,99.86
1,11,0.03,11,9.89,11,10,11,0.12,11,0.07,11,0,11,4.95,11,99.85
1,12,0.03,12,9.88,12,10,12,0.13,12,0.08,12,0,12,4.94,12,99.83
1,13,0.04,13,9.87,13,10,13,0.14,13,0.08,13,0,13,4.94,13,99.82
1,14,0.04,14,9.86,14,10,14,0.16,14,0.09,14,0,14,4.93,14,99.8
1,15,0.04,15,9.85,15,10,15,0.17,15,0.1,15,0,15,4.93,15,99.79
1,16,0.05,16,9.84,16,10,16,0.18,16,0.1,16,0,16,4.92,16,99.77
1,17,0.05,17,9.83,17,10,17,0.19,17,0.11,17,0,17,4.92,17,99.76
1,18,0.05,18,9.82,18,10,18,0.21,18,0.12,18,0,18,4.91,18,99.74
1,19,0.05,19,9.81,19,10,19,0.22,19,0.12,19,0,19,4.91,19,99.73
1,20,0.06,20,9.8,20,10,20,0.23,20,0.13,20,0,20,4.9,20,99.71
1,21,0.06,21,9.79,21,10,21,0.24,21,0.14,21,0,21,4.9,21,99.69
1,22,0.06,22,9.77,22,10,22,0.26,22,0.14,22,0,22,4.89,22,99.68
1,23,0.07,23,9.76,23,10,23,0.27,23,0.15,23,0,23,4.89,23,99.66
1,24,0.07,24,9.75,24,10,24,0.28,24,0.16,24,0,24,4.88,24,99.65
1,25,0.07,25,9.74,25,10,25,0.3,25,0.17,25,0,25,4.88,25,99.63
1,26,0.08,26,9.73,26,10,26,0.31,26,0.17,26,0,26,4.87,26,99.61
1,27,0.08,27,9.72,27,10,27,0.32,27,0.18,27,0,27,4.87,27,99.6
1,28,0.08,28,9.71,28,10,28,0.34,28,0.19,28,0,28,4.86,28,99.58
1,29,0.09,29,9.69,29,10,29,0.35,29,0.19,29,0,29,4.85,29,99.56
1,30,0.09,30,9.68,30,10,30,0.36,30,0.2,30,0,30,4.85,30,99.55
1,31,0.09,31,9.67,31,10,31,0.38,31,0.21,31,0,31,4.84,31,99.53
1,32,0.1,32,9.66,32,10,32,0.39,32,0.22,32,0,32,4.84,32,99.51
1,33,0.1,33,9.65,33,10,33,0.4,33,0.22,33,0,33,4.83,33,99.5
1,34,0.1,34,9.63,34,10,34,0.42,34,0.23,34,0,34,4.83,34,99.48
1,35,0.11,35,9.62,35,10,35,0.43,35,0.24,35,0,35,4.82,35,99.46
1,36,0.11,36,9.61,36,10,36,0.45,36,0.25,36,0,36,4.81,36,99.44
1,37,0.11,37,9.6,37,10,37,0.46,37,0.25,37,0,37,4.81,37,99.42
1,38,0.12,38,9.58,38,10,38,0.48,38,0.26,38,0,38,4.8,38,99.41
1,39,0.12,39,9.57,39,10,39,0.49,39,0.27,39,0,39,4.8,39,99.39
1,40,0.12,40,9.56,40,10,40,0.51,40,0.28,40,0,40,4.79,40,99.37
1,41,0.13,41,9.54,41,10,41,0.52,41,0.29,41,0,41,4.78,41,99.35
1,42,0.13,42,9.53,42,10,42,0.54,42,0.3,42,0,42,4.78,42,99.33
1,43,0.14,43,9.52,43,10,43,0.55,43,0.3,43,0,43,4.77,43,99.31
1,44,0.14,44,9.5,44,10,44,0.57,44,0.31,44,0,44,4.76,44,99.29
1,45,0.14,45,9.49,45,10,45,0.58,45,0.32,45,0,45,4.76,45,99.27
1,46,0.15,46,9.48,46,10,46,0.6,46,0.33,46,0,46,4.75,46,99.25
1,47,0.15,47,9.46,47,10,47,0.62,47,0.34,47,0,47,4.74,47,99.23
1,48,0.16,48,9.45,48,10,48,0.63,48,0.35,48,0,48,4.74,48,99.21
1,49,0.16,49,9.43,49,10,49,0.65,49,0.36,49,0,49,4.73,49,99.19
1,50,0.16,50,9.42,50,10,50,0.67,50,0.37,50,0,50,4.72,50,99.17
1,51,0.17,51,9.4,51,10,51,0.68,51,0.38,51,0,51,4.71,51,99.14
1,52,0.17,52,9.39,52,10,52,0.7,52,0.39,52,0,52,4.71,52,99.12
1,53,0.18,53,9.37,53,10,53,0.72,53,0.4,53,0,53,4.7,53,99.1
1,54,0.18,54,9.35,54,10,54,0.74,54,0.41,54,0,54,4.69,54,99.08
1,55,0.19,55,9.34,55,10,55,0.76,55,0.42,55,0,55,4.68,55,99.05
1,56,0.19,56,9.32,56,10,56,0.78,56,0.43,56,0,56,4.68,56,99.03
1,57,0.2,57,9.3,57,10,57,0.8,57,0.44,57,0,57,4.67,57,99
1,58,0.2,58,9.29,58,10,58,0.82,58,0.45,58,0,58,4.66,58,98.98
1,59,0.21,59,9.27,59,10,59,0.84,59,0.46,59,0,59,4.65,59,98.95
1,60,0.21,60,9.25,60,10,60,0.86,60,0.47,60,0,60,4.64,60,98.93
1,61,0.22,61,9.23,61,10,61,0.88,61,0.48,61,0,61,4.63,61,98.9
1,62,0.22,62,9.21,62,10,62,0.9,62,0.49,62,0,62,4.63,62,98.88
1,63,0.23,63,9.19,63,10,63,0.92,63,0.5,63,0,63,4.62,63,98.85
1,64,0.23,64,9.17,64,10,64,0.94,64,0.52,64,0,64,4.61,64,98.82
1,65,0.24,65,9.15,65,10,65,0.97,65,0.53,65,0,65,4.6,65,98.79
1,66,0.24,66,9.13,66,10,66,0.99,66,0.54,66,0,66,4.59,66,98.76
1,67,0.25,67,9.11,67,10,67,1.02,67,0.56,67,0,67,4.58,67,98.73
1,68,0.26,68,9.09,68,10,68,1.04,68,0.57,68,0,68,4.57,68,98.7
1,69,0.26,69,9.07,69,10,69,1.07,69,0.58,69,0,69,4.56,69,98.67
1,70,0.27,70,9.04,70,10,70,1.09,70,0.6,70,0,70,4.55,70,98.64
1,71,0.28,71,9.02,71,10,71,1.12,71,0.61,71,0,71,4.53,71,98.6
1,72,0.28,72,9,72,10,72,1.15,72,0.63,72,0,72,4.52,72,98.57
1,73,0.29,73,8.97,73,10,73,1.17,73,0.64,73,0,73,4.51,73,98.53
1,74,0.3,74,8.95,74,10,74,1.2,74,0.66,74,0,74,4.5,74,98.49
1,75,0.3,75,8.92,75,10,75,1.23,75,0.67,75,0,75,4.49,75,98.46
1,76,0.31,76,8.89,76,10,76,1.27,76,0.69,76,0,76,4.47,76,98.42
1,77,0.32,77,8.87,77,10,77,1.3,77,0.71,77,0,77,4.46,77,98.38
1,78,0.33,78,8.84,78,10,78,1.33,78,0.73,78,0,78,4.45,78,98.34
1,79,0.34,79,8.81,79,10,79,1.36,79,0.74,79,0,79,4.43,79,98.29
1,80,0.35,80,8.78,80,10,80,1.4,80,0.76,80,0,80,4.42,80,98.25
1,81,0.35,81,8.74,81,10,81,1.44,81,0.78,81,0,81,4.4,81,98.21
1,82,0.36,82,8.71,82,10,82,1.47,82,0.8,82,0,82,4.39,82,98.16
1,83,0.37,83,8.68,83,10,83,1.51,83,0.82,83,0,83,4.37,83,98.11
1,84,0.38,84,8.64,84,10,84,1.55,84,0.85,84,0,84,4.35,84,98.06
1,85,0.39,85,8.6,85,10,85,1.6,85,0.87,85,0,85,4.34,85,98.01
1,86,0.4,86,8.57,86,10,86,1.64,86,0.89,86,0,86,4.32,86,97.95
1,87,0.42,87,8.53,87,10,87,1.69,87,0.92,87,0,87,4.3,87,97.89
1,88,0.43,88,8.48,88,10,88,1.73,88,0.94,88,0,88,4.28,88,97.83
1,89,0.44,89,8.44,89,10,89,1.78,89,0.97,89,0,89,4.26,89,97.77
1,90,0.45,90,8.39,90,10,90,1.83,90,1,90,0,90,4.24,90,97.71
1,91,0.47,91,8.35,91,10,91,1.89,91,1.03,91,0,91,4.21,91,97.64
1,92,0.48,92,8.3,92,10,92,1.95,92,1.06,92,0,92,4.19,92,97.57
1,93,0.49,93,8.25,93,10,93,2,93,1.09,93,0,93,4.16,93,97.49
1,94,0.51,94,8.19,94,10,94,2.07,94,1.12,94,0,94,4.14,94,97.42
1,95,0.53,95,8.13,95,10,95,2.13,95,1.16,95,0,95,4.11,95,97.33
1,96,0.54,96,8.07,96,10,96,2.2,96,1.2,96,0,96,4.08,96,97.25
1,97,0.56,97,8.01,97,10,97,2.28,97,1.24,97,0,97,4.05,97,97.16
1,98,0.58,98,7.94,98,10,98,2.35,98,1.28,98,0,98,4.02,98,97.06
1,99,0.6,99,7.87,99,10,99,2.43,99,1.32,99,0,99,3.99,99,96.96
1,100,0.62,100,7.79,100,10,100,2.52,100,1.37,100,0,100,3.95,100,96.85
1,101,0.65,101,7.71,101,10,101,2.61,101,1.42,101,0,101,3.91,101,96.73
1,102,0.67,102,7.63,102,10,102,2.71,102,1.47,102,0,102,3.87,102,96.61
1,103,0.7,103,7.54,103,10,103,2.82,103,1.53,103,0,103,3.83,103,96.48
1,104,0.72,104,7.44,104,10,104,2.93,104,1.59,104,0,104,3.78,104,96.34
1,105,0.75,105,7.33,105,10,105,3.05,105,1.66,105,0,105,3.73,105,96.19
1,106,0.78,106,7.22,106,10,106,3.18,106,1.73,106,0,106,3.68,106,96.03
1,107,0.82,107,7.1,107,10,107,3.32,107,1.8,107,0,107,3.62,107,95.85
1,108,0.86,108,6.96,108,10,108,3.47,108,1.88,108,0,108,3.55,108,95.66
1,109,0.9,109,6.82,109,10,109,3.63,109,1.97,109,0,109,3.49,109,95.46
1,110,0.94,110,6.66,110,10,110,3.81,110,2.07,110,0,110,3.41,110,95.23
1,111,0.99,111,6.49,111,10,111,4.01,111,2.18,111,0,111,3.33,111,94.98
1,112,1.04,112,6.3,112,10,112,4.23,112,2.29,112,0,112,3.24,112,94.71
1,113,1.1,113,6.09,113,10,113,4.47,113,2.43,113,0,113,3.14,113,94.41
1,114,1.17,114,5.85,114,10,114,4.74,114,2.57,114,0,114,3.03,114,94.08
1,115,1.24,115,5.59,115,10,115,5.04,115,2.73,115,0,115,2.9,115,93.7
1,116,1.33,116,5.29,116,10,116,5.38,116,2.92,116,0,116,2.76,116,93.28
1,117,1.42,117,4.96,117,10,117,5.76,117,3.12,117,0,117,2.6,117,92.8
1,118,1.53,118,4.57,118,10,118,6.21,118,3.36,118,0,118,2.41,118,92.24
1,119,1.66,119,4.12,119,10,119,6.72,119,3.64,119,0,119,2.2,119,91.6
1,120,1.81,120,3.59,120,10,120,7.32,120,3.97,120,0,120,1.95,120,90.85
1,121,1.98,121,2.97,121,10,121,8.04,121,4.35,121,0,121,1.65,121,89.95
1,122,2.2,122,2.21,122,10,122,8.9,122,4.82,122,0,122,1.29,122,88.87
1,123,2.46,123,1.28,123,10,123,9.97,123,5.4,123,0,123,0.85,123,87.54
1,124,2.79,124,0.1,124,10,124,11.32,124,6.13,124,0,124,0.28,124,85.85
1,125,2.91,125,0,125,10,125,11.32,125,6.22,125,0,125,0,125,84.82
1,126,2.91,126,0,126,10,126,11.32,126,6.22,126,0,126,0,126,84.82
1,127,3.53,127,0,127,7.27,127,13.58,127,6.22,127,0,127,0,127,80.92
1,128,4.4,128,0,128,3.5,128,16.72,128,6.22,128,0,128,0,128,75.53
1,129,5.48,129,0,129,0,129,19.12,129,6.22,129,0,129,0,129,67.5
1,130,5.48,130,0,130,0,130,19.12,130,6.22,130,0,130,0,130,67.5
1,131,5.48,131,0,131,0,131,19.12,131,6.22,131,0,131,0,131,67.5
1,132,5.48,132,0,132,0,132,19.12,132,6.22,132,0,132,0,132,67.5
1,133,5.48,133,0,133,0,133,19.12,133,6.22,133,0,133,0,133,67.5
1,134,5.48,134,0,134,0,134,19.12,134,6.22,134,0,134,0,134,67.5
1,135,5.48,135,0,135,0,135,19.12,135,6.22,135,0,135,0,135,67.5
1,136,5.48,136,0,136,0,136,19.12,136,6.22,136,0,136,0,136,67.5
1,137,5.48,137,0,137,0,137,19.12,137,6.22,137,0,137,0,137,67.5
1,138,5.48,138,0,138,0,138,19.12,138,6.22,138,0,138,0,138,67.5
1,139,5.48,139,0,139,0,139,19.12,139,6.22,139,0,139,0,139,67.5
1,140,5.48,140,0,140,0,140,19.12,140,6.22,140,0,140,0,140,67.5
1,141,5.48,141,0,141,0,141,19.12,141,6.22,141,0,141,0,141,67.5
1,142,5.48,142,0,142,0,142,19.12,142,6.22,142,0,142,0,142,67.5
1,143,5.48,143,0,143,0,143,19.12,143,6.22,143,0,143,0,143,67.5
1,144,5.48,144,0,144,0,144,19.12,144,6.22,144,0,144,0,144,67.5
1,145,5.48,145,0,145,0,145,19.12,145,6.22,145,0,145,0,145,67.5
1,146,5.48,146,0,146,0,146,19.12,146,6.22,146,0,146,0,146,67.5
1,147,5.48,147,0,147,0,147,19.12,147,6.22,147,0,147,0,147,67.5
1,148,5.48,148,0,148,0,148,19.12,148,6.22,148,0,148,0,148,67.5
1,149,5.48,149,0,149,0,149,19.12,149,6.22,149,0,149,0,149,67.5
